{
  "content": [
    {
      "id": 729,
      "operatorId": 729,
      "name": "168 Thailand",
      "bundle": false,
      "data": false,
      "pin": false,
      "supportsLocalAmounts": false,
      "denominationType": "FIXED",
      "senderCurrencyCode": "USD",
      "senderCurrencySymbol": "$",
      "destinationCurrencyCode": "THB",
      "destinationCurrencySymbol": "฿",
      "commission": 0.0,
      "internationalDiscount": 0.0,
      "localDiscount": 0.0,
      "mostPopularAmount": 20.31,
      "mostPopularLocalAmount": null,
      "minAmount": null,
      "maxAmount": null,
      "localMinAmount": null,
      "localMaxAmount": null,
      "country": {
        "isoName": "TH",
        "name": "Thailand"
      },
      "fx": {
        "rate": 24.39,
        "currencyCode": "THB"
      },
      "logoUrls": [
        "https://s3.amazonaws.com/rld-operator/13f57481-aad1-4534-8434-428f7ea32ffb-size-1.png",
        "https://s3.amazonaws.com/rld-operator/13f57481-aad1-4534-8434-428f7ea32ffb-size-3.png",
        "https://s3.amazonaws.com/rld-operator/13f57481-aad1-4534-8434-428f7ea32ffb-size-2.png"
      ],
      "fixedAmounts": [
        0.41,
        0.82,
        2.04,
        4.07,
        8.13,
        12.19,
        20.31
      ],
      "fixedAmountsDescriptions": {},
      "localFixedAmounts": [],
      "localFixedAmountsDescriptions": {},
      "suggestedAmounts": [],
      "suggestedAmountsMap": {},
      "promotions": []
    },
    {
      "id": 340,
      "operatorId": 340,
      "name": "9Mobile (Etisalat) Nigeria",
      "bundle": false,
      "data": false,
      "pin": false,
      "supportsLocalAmounts": true,
      "denominationType": "RANGE",
      "senderCurrencyCode": "USD",
      "senderCurrencySymbol": "$",
      "destinationCurrencyCode": "NGN",
      "destinationCurrencySymbol": "₦",
      "commission": 9.0,
      "internationalDiscount": 9.0,
      "localDiscount": 0.0,
      "mostPopularAmount": 15,
      "mostPopularLocalAmount": null,
      "minAmount": 0.02,
      "maxAmount": 138,
      "localMinAmount": 5.00,
      "localMaxAmount": 50000.00,
      "country": {
        "isoName": "NG",
        "name": "Nigeria"
      },
      "fx": {
        "rate": 320,
        "currencyCode": "NGN"
      },
      "logoUrls": [
        "https://s3.amazonaws.com/rld-operator/a6c9c490-39fa-47c0-a63a-b4a4d1d4dbe5-size-3.png",
        "https://s3.amazonaws.com/rld-operator/a6c9c490-39fa-47c0-a63a-b4a4d1d4dbe5-size-2.png",
        "https://s3.amazonaws.com/rld-operator/a6c9c490-39fa-47c0-a63a-b4a4d1d4dbe5-size-1.png"
      ],
      "fixedAmounts": [],
      "fixedAmountsDescriptions": {},
      "localFixedAmounts": [],
      "localFixedAmountsDescriptions": {},
      "suggestedAmounts": [
        1,
        5,
        10,
        15,
        20,
        25,
        30,
        35,
        40,
        45,
        50,
        55,
        60,
        65,
        70,
        75,
        80,
        85,
        90,
        95,
        100,
        105,
        110,
        115,
        120,
        125,
        130,
        135
      ],
      "suggestedAmountsMap": {},
      "promotions": []
    },
    {
      "id": 645,
      "operatorId": 645,
      "name": "9Mobile (Etisalat) Nigeria Data",
      "bundle": false,
      "data": true,
      "pin": false,
      "supportsLocalAmounts": true,
      "denominationType": "FIXED",
      "senderCurrencyCode": "USD",
      "senderCurrencySymbol": "$",
      "destinationCurrencyCode": "NGN",
      "destinationCurrencySymbol": "₦",
      "commission": 4.0,
      "internationalDiscount": 4.0,
      "localDiscount": 0.0,
      "mostPopularAmount": 305.56,
      "mostPopularLocalAmount": 50.00,
      "minAmount": null,
      "maxAmount": null,
      "localMinAmount": null,
      "localMaxAmount": null,
      "country": {
        "isoName": "NG",
        "name": "Nigeria"
      },
      "fx": {
        "rate": 360,
        "currencyCode": "NGN"
      },
      "logoUrls": [
        "https://s3.amazonaws.com/rld-operator/a6c9c490-39fa-47c0-a63a-b4a4d1d4dbe5-size-3.png",
        "https://s3.amazonaws.com/rld-operator/a6c9c490-39fa-47c0-a63a-b4a4d1d4dbe5-size-2.png",
        "https://s3.amazonaws.com/rld-operator/a6c9c490-39fa-47c0-a63a-b4a4d1d4dbe5-size-1.png"
      ],
      "fixedAmounts": [
        0.14,
        0.28,
        0.56,
        1.39,
        2.78,
        3.33,
        4.17,
        5.56,
        8.33,
        11.11,
        22.22,
        27.78,
        50.00,
        76.39,
        152.78,
        236.09,
        305.56
      ],
      "fixedAmountsDescriptions": {
        "0.14": "25MB (24 hours)",
        "0.28": "Data 40MB (1 day)",
        "0.56": "Data 650MB (24 Hours)",
        "1.39": "Data 500MB (30 Days)",
        "2.78": "Data 1GB (30 days)",
        "3.33": "Data 1.5GB (30 days)",
        "4.17": "Data 7GB (7 Days)",
        "5.56": "Data 2.5GB (30 days)",
        "8.33": "Data 4GB (30 days)",
        "11.11": "Data 5.5GB (30 days)",
        "22.22": "Data 11.5GB (30 days)",
        "27.78": "Data 15GB (30 days)",
        "50.00": "Data 27.5GB (30 days)",
        "76.39": "Data 30GB (90 days)",
        "152.78": "Data 60GB (180 days)",
        "236.09": "Data 100GB (100 days)",
        "305.56": "Data 120GB (365 days)"
      },
      "localFixedAmounts": [
        50.00,
        100.00,
        200.00,
        500.00,
        1000.00,
        1200.00,
        1500.00,
        2000.00,
        3000.00,
        4000.00,
        8000.00,
        10000.00,
        18000.00,
        27500.00,
        55000.00,
        84992.00,
        110000.00
      ],
      "localFixedAmountsDescriptions": {
        "50.00": "25MB (24 hours)",
        "100.00": "Data 40MB (1 day)",
        "200.00": "Data 650MB (24 Hours)",
        "500.00": "Data 500MB (30 Days)",
        "1000.00": "Data 1GB (30 days)",
        "1200.00": "Data 1.5GB (30 days)",
        "1500.00": "Data 7GB (7 Days)",
        "2000.00": "Data 2.5GB (30 days)",
        "3000.00": "Data 4GB (30 days)",
        "4000.00": "Data 5.5GB (30 days)",
        "8000.00": "Data 11.5GB (30 days)",
        "10000.00": "Data 15GB (30 days)",
        "18000.00": "Data 27.5GB (30 days)",
        "27500.00": "Data 30GB (90 days)",
        "55000.00": "Data 60GB (180 days)",
        "84992.00": "Data 100GB (100 days)",
        "110000.00": "Data 120GB (365 days)"
      },
      "suggestedAmounts": [],
      "suggestedAmountsMap": {},
      "promotions": []
    },
    {
      "id": 581,
      "operatorId": 581,
      "name": "Access Wireless PIN USA",
      "bundle": false,
      "data": false,
      "pin": true,
      "supportsLocalAmounts": true,
      "denominationType": "FIXED",
      "senderCurrencyCode": "USD",
      "senderCurrencySymbol": "$",
      "destinationCurrencyCode": "USD",
      "destinationCurrencySymbol": "$",
      "commission": 1.0,
      "internationalDiscount": 1.0,
      "localDiscount": 0.0,
      "mostPopularAmount": 25.00,
      "mostPopularLocalAmount": null,
      "minAmount": null,
      "maxAmount": null,
      "localMinAmount": null,
      "localMaxAmount": null,
      "country": {
        "isoName": "US",
        "name": "United States"
      },
      "fx": {
        "rate": 1,
        "currencyCode": "USD"
      },
      "logoUrls": [
        "https://s3.amazonaws.com/rld-operator/8ffa0ff5-32ba-4dfc-aa3b-bfb751e26466-size-1.png",
        "https://s3.amazonaws.com/rld-operator/8ffa0ff5-32ba-4dfc-aa3b-bfb751e26466-size-2.png",
        "https://s3.amazonaws.com/rld-operator/8ffa0ff5-32ba-4dfc-aa3b-bfb751e26466-size-3.png"
      ],
      "fixedAmounts": [
        5.00,
        10.00,
        25.00,
        50.00
      ],
      "fixedAmountsDescriptions": {},
      "localFixedAmounts": [],
      "localFixedAmountsDescriptions": {},
      "suggestedAmounts": [],
      "suggestedAmountsMap": {},
      "promotions": []
    },
    {
      "id": 1,
      "operatorId": 1,
      "name": "Afghan Wireless Afghanistan",
      "bundle": false,
      "data": false,
      "pin": false,
      "supportsLocalAmounts": true,
      "denominationType": "RANGE",
      "senderCurrencyCode": "USD",
      "senderCurrencySymbol": "$",
      "destinationCurrencyCode": "AFN",
      "destinationCurrencySymbol": "؋",
      "commission": 10.0,
      "internationalDiscount": 10.0,
      "localDiscount": 1.0,
      "mostPopularAmount": 15,
      "mostPopularLocalAmount": null,
      "minAmount": 0.50,
      "maxAmount": 32,
      "localMinAmount": 38.00,
      "localMaxAmount": 2500.00,
      "country": {
        "isoName": "AF",
        "name": "Afghanistan"
      },
      "fx": {
        "rate": 65,
        "currencyCode": "AFN"
      },
      "logoUrls": [
        "https://s3.amazonaws.com/rld-operator/b0c4d9d0-9feb-48ba-9a29-3f4a8bcd3268-size-2.png",
        "https://s3.amazonaws.com/rld-operator/b0c4d9d0-9feb-48ba-9a29-3f4a8bcd3268-size-3.png",
        "https://s3.amazonaws.com/rld-operator/b0c4d9d0-9feb-48ba-9a29-3f4a8bcd3268-size-1.png"
      ],
      "fixedAmounts": [],
      "fixedAmountsDescriptions": {},
      "localFixedAmounts": [],
      "localFixedAmountsDescriptions": {},
      "suggestedAmounts": [
        1,
        5,
        10,
        15,
        20,
        25,
        30
      ],
      "suggestedAmountsMap": {},
      "promotions": []
    }
  ],
  "pageable": {
    "sort": {
      "unsorted": true,
      "sorted": false,
      "empty": true
    },
    "offset": 0,
    "pageNumber": 0,
    "pageSize": 5,
    "unpaged": false,
    "paged": true
  },
  "last": false,
  "totalElements": 656,
  "totalPages": 132,
  "size": 5,
  "number": 0,
  "numberOfElements": 5,
  "sort": {
    "unsorted": true,
    "sorted": false,
    "empty": true
  },
  "first": true,
  "empty": false
}