{
  "content": [
    {
      "id": 7016,
      "promotionId": 7016,
      "operatorId": 121,
      "title": "Digicel El Salvador From 07 Feb 2020 00:00 To 31 Dec 2020 23:59 (GMT-06:00)",
      "title2": "Bonus 5x",
      "description": "<br /><br />- The promotion will run from 00:01 am Friday, February 7th 2020 through to and including 11:59pm Thursday 31, December 2020 (&ldquo;The Promotion Period&rdquo;).<br />- Customers will be required to send a minimum Top Up of $5&nbsp;during the promotional period to receive 5 times bonus credit on the Top Up Value plus 30 days Whatsapp Chat:<br /><img alt=\"\" src=\"https://i.imgur.com/rTLqkov.png\" style=\"height:384px; width:600px\" />- Promotion applies only to prepaid Digicel customers sending Top Up to El Salvador.<br />- The duration of the bonus credit validity on the recipient&rsquo;s mobile number is dependent on theTop Up Value (refer to chart above)<br />- The bonus credit on the recipient&rsquo;s Digicel mobile number can be used for:<br />a. Digicel to Digicel calls (on-net calls);<br />b. Calls to USA<br />c. Calls to Canada<br />- Bonus credit is automatically added once Top Up value is received<br />- To check bonus, customer may dial *120*53#<br />- Benefit of Whatsapp ONLY includes Whatsapp Chat; Whatsapp calls or video calls are not included<br />- Postpaid customers are not eligible for the promotion.<br />- Digicel will not be responsible for: (1) technical failures of any kind, including, but not limited to malfunctions, interruptions, or disconnections in network connections or hardware or software; (2) unauthorized human intervention in any part; or (3) technical or human error which may occur in the administration of this promotion.<br />- Digicel reserves the right to at any time vary the terms of the promotion, to amend its terms and conditions or to withdraw the promotion. In any of these events, notice will be given via media advertisements or messages to subscribers and will be effective immediately or as of the date referred to in such notifications.<br />- Digicel reserves the right to terminate, cancel, suspend and/or modify the promotion if any<br />fraud, virus or other technical problem corrupts the administration, security, safety or proper play of the promotion. In such event, Digicel hereby specifically reserve the right (but not the obligation) to award some other prize hereunder by means of a random drawing from among the eligible entries received up until the time of the impairment.<br /><br /><img alt=\"\" src=\"https://i.imgur.com/6gyW9sg.png\" style=\"height:326px; width:600px\" /><br /><br /><img alt=\"\" src=\"https://i.imgur.com/A6EOwMR.png\" style=\"height:189px; width:600px\" />",
      "startDate": "2020-02-07 11:00:00",
      "endDate": "2021-01-01 10:59:00",
      "denominations": "USD 5 and up",
      "localDenominations": null
    },
    {
      "id": 7094,
      "promotionId": 7094,
      "operatorId": 353,
      "title": "Telenor Pakistan From 15 Apr 2020 00:00 To 31 Dec 2020 23:59 (GMT+05:00)",
      "title2": "Free data and minutes",
      "description": "Telenor Pakistan has an exciting offer for friends and family in Pakistan.<br />Top them up with Rs 100 and above and they get FREE 50 Telenor Mins &amp; 500 SMS.<br /><br /><strong>Activating the bonus</strong> is in <strong>3 easy steps</strong><br /><br /><strong>Step 1: Receiver in Pakistan dials *345*260#&nbsp;and receives confirmation</strong><br /><img alt=\"\" src=\"https://i.postimg.cc/YCmC94tN/Subscription-Request-Confirmation-Telenor-Pakistan-2.png\" style=\"height:139px; width:250px\" /><br /><br /><strong>Step 2: Global Sender remits 100PKR to the receiver</strong><br /><br /><strong>Step 3: Receiver&nbsp;enjoys extra minutes and SMS valid for 24hrs</strong><br /><img alt=\"\" src=\"https://i.postimg.cc/t4f9G9P1/Subscription-Notification-Telenor-Pakistan-4.png\" style=\"height:222px; width:250px\" /><br /><br /><strong>Terms and Conditions:</strong><br />* Bonus is usable for onnet calls, and local SMS<br />* Only 1 promo per day is allowed i.e. promo is applied on 1st&nbsp;100 PKR recharge&nbsp;&nbsp;<br />* Bonus is valid for the same day of recharge i.e&nbsp; get a recharge from abroad at 11AM, the offer will expire at 23:59 same day.<br /><br />Offer is valid until further notice.",
      "startDate": "2020-04-14 23:00:00",
      "endDate": "2020-12-31 23:59:00",
      "denominations": "USD 1 and above",
      "localDenominations": "PKR 100 and above"
    },
    {
      "id": 7299,
      "promotionId": 7299,
      "operatorId": 613,
      "title": "Econet Zimbabwe From 03 Jun 2020 00:01 To 31 Dec 2020 23:59 (GMT+02:00)",
      "title2": "Bonus 2x",
      "description": "<font style=\"vertical-align: inherit;\"><font style=\"vertical-align: inherit;\">Econet Zimbabwe 100% Bonus Promotion from 3rd June 2020 until further notice. </font></font><br /><br /><strong><font style=\"vertical-align: inherit;\"><font style=\"vertical-align: inherit;\">Terms and Conditions</font></font></strong><br /><font style=\"vertical-align: inherit;\"><font style=\"vertical-align: inherit;\">1. Promotion runs from 3rd June 2020 until further notice. </font></font><br /><font style=\"vertical-align: inherit;\"><font style=\"vertical-align: inherit;\">2. Bonus will be rewarded for all denominations recharged. </font></font><br /><font style=\"vertical-align: inherit;\"><font style=\"vertical-align: inherit;\">3. Bonus applies to any number of recharges received.&nbsp;&nbsp;</font></font><br /><font style=\"vertical-align: inherit;\"><font style=\"vertical-align: inherit;\">4. The normal and usual validity periods apply. </font></font><br /><font style=\"vertical-align: inherit;\"><font style=\"vertical-align: inherit;\">5. The airtime will credited into the main airtime account. </font></font><br /><br /><br /><strong><font style=\"vertical-align: inherit;\"><font style=\"vertical-align: inherit;\">Example</font></font></strong><br /><font style=\"vertical-align: inherit;\"><font style=\"vertical-align: inherit;\">2 US $ buys 50 ZWL Principal Airtime Recharge + 50 ZWL / RTGS Free Bonus Airtime Recharge = Total Amount Received 100 ZWL / RTGS&nbsp;&nbsp; </font></font><br /><br />&nbsp;",
      "startDate": "2020-06-03 02:01:00",
      "endDate": "2021-01-01 02:59:00",
      "denominations": "USD 1 and above",
      "localDenominations": "USD 1 and above"
    },
    {
      "id": 7766,
      "promotionId": 7766,
      "operatorId": 35,
      "title": "Viva Bolivia From 21 Sep 2020 00:00 To 31 Dec 2020 23:59 (GMT-04:00)",
      "title2": "Bonus 2x",
      "description": "- Customers in Bolivia will have the opportunity to receive a double top up on any amount up to USD$28 or BOB 200 per day.<br />- The option to receive a double top up expires at 23:59&nbsp; everyday<br />- Receivers in Bolivia need to dial&nbsp; *222# or via&nbsp;VIVA APP to activate the double top up<br />- Offer valid for Viva users with seniority equal to or greater than 4 months<br /><br />T&eacute;rminos y Condiciones:<br />- Clientes en Bolivia tienen la oportunidad de recibir una recarga doble en cual denominaci&oacute;n hasta un m&aacute;ximo de USD$28 o BOB 200 al d&iacute;a<br />- La opci&oacute;n de recibir la recarga doble expira a las 23:59 cada d&iacute;a.<br />- Para poder recibir la recarga doble, el destinatario en Bolivia necesita marcar *222# o via VIVA APP<br />- Oferta v&aacute;lida para usuarios Viva con antig&uuml;edad igual o mayor a 4 meses<br /><br /><img alt=\"\" src=\"https://i.imgur.com/EQpG9eu.png\" style=\"height:231px; width:651px\" />",
      "startDate": "2020-09-21 08:00:00",
      "endDate": "2021-01-01 08:59:00",
      "denominations": "All",
      "localDenominations": null
    },
    {
      "id": 7993,
      "promotionId": 7993,
      "operatorId": 303,
      "title": "Telcel Mexico From 09 Nov 2020 00:00 To 18 Jan 2021 23:59 (GMT-06:00)",
      "title2": "Double Data on TelcelBundles",
      "description": "- Double (2x) GB on Telcel Mexico Bundles of MXN 300 and MXN 500<br />- 50% Additional GB Data on Telcel Mexico Bundles of MXN 150 and MXN 200<br /><br />- For MXN 150 Bundle, customers will receive 3 GB Data = 2 GB + 1 GB promotional data, valid for 26 days<br />- For MXN 200 Bundle, customers will receive 4.5 GB Data = 3 GB + 1.5 GB promotional data, valid for 30 days<br />- For MXN 300 Bundle, customers will receive 8 GB Data = 4 GB + 4 GB promotional data, valid for 30 days<br />- For MXN 500 Bundle, customers will receive 12 GB Data = 6 GB + 6 GB promotional data, valid for 30 days<br /><br />Additionally, customers will receive:<br />- 500 MB for Claro Musica (all participant Bundles denominations), Unlimited WhatsApp and Facebook (except voice calls), Twitter, Snapchat and Instagram<br />- Unlimited minutes and SMS to Mexico, US and Canada<br /><br /><img alt=\"\" src=\"https://i.postimg.cc/X77BF8r8/Captura-de-Pantalla-2020-11-09-a-la-s-2-55-55-p-m.png\" style=\"height:584px; width:650px\" /><br /><br />See complete offer here and please note this promotion applies for MXN Telcel Bundles of 150 and up.<br /><br /><img alt=\"\" src=\"https://i.postimg.cc/FznS1dVm/1604950282949.jpg\" style=\"height:316px; width:600px\" /><br /><br />T&eacute;rminos y condiciones (Spanish version):<br />-&nbsp;Doble GB para Navegaci&oacute;n con los paquetes Amigo Telcel (Telcel Mexico Bundles) de&nbsp; MXN 300 y MXN 500<br />- 50%&nbsp; GB adicionales para los paquetes Telcel Mexico Bundles de MXN 150 y MXN 200<br /><br />- Para el paquete Amigo Telel&nbsp; MXN 150, los clientes recibir&aacute;n 3 GB para Navegaci&oacute;n = 2 GB + 1 GB promocional, v&aacute;lido&nbsp;por 26 d&iacute;as<br />- Para el paquete Amigo Telel&nbsp; MXN 200, los clientes recibir&aacute;n 4.5 GB para Navegaci&oacute;n = 3 GB + 1.5 GB promocional, v&aacute;lido&nbsp;por 30 d&iacute;as<br />- Para el paquete Amigo Telel&nbsp; MXN 300, los clientes recibir&aacute;n 8 GB para Navegaci&oacute;n = 4 GB + 4 GB promocional, v&aacute;lido&nbsp;por 30 d&iacute;as<br />- Para el paquete Amigo Telel&nbsp; MXN 500, los clientes recibir&aacute;n 12 GB para Navegaci&oacute;n = 6 GB + 6 GB promocional, v&aacute;lido&nbsp;por 30 d&iacute;as<br /><br />Adicionalmente, los clientes recibir&aacute;n:<br />- 500 MB para Claro M&uacute;sica (todas las denominaciones participantes), WhatsApp y Facebook ilimitado (excepto llamadas de voz), Twitter, Snapchat e Instagram.<br />- Minutos y SMS ilimitados a M&eacute;xico Estados Unidos y Canad&aacute;<br />&nbsp;",
      "startDate": "2020-11-09 11:00:00",
      "endDate": "2021-01-19 10:59:00",
      "denominations": null,
      "localDenominations": "MXN 150 and up"
    }
  ],
  "pageable": {
    "sort": {
      "sorted": false,
      "unsorted": true,
      "empty": true
    },
    "pageNumber": 0,
    "pageSize": 5,
    "offset": 0,
    "unpaged": false,
    "paged": true
  },
  "last": false,
  "totalPages": 15,
  "totalElements": 73,
  "size": 5,
  "number": 0,
  "first": true,
  "numberOfElements": 5,
  "sort": {
    "sorted": false,
    "unsorted": true,
    "empty": true
  },
  "empty": false
}